<svg xmlns="http://www.w3.org/2000/svg" xmlns:xlink="http://www.w3.org/1999/xlink" version="1.1" id="Capa_1" x="0px" y="0px" width="100px" height="75.78125px" viewBox="0 0 128.492 97.43" enable-background="new 0 0 128.492 97.43" xml:space="preserve">
<rect x="16.426" y="63.423" width="14.505" height="17.234"/>
<rect x="37.351" y="50.334" width="14.506" height="30.324"/>
<rect x="58.275" y="34.98" width="14.506" height="45.68"/>
<rect x="79.199" y="22.096" width="14.508" height="58.562"/>
<rect x="100.123" y="12.632" width="14.506" height="68.026"/>
<polygon points="127.02,90.375 121.526,84.884 121.526,88.644 8.847,88.644 8.847,7.055 12.457,7.055 6.964,1.564 1.473,7.055   5.131,7.055 5.131,92.351 121.526,92.351 121.526,95.867 "/>
</svg>