<svg xmlns="http://www.w3.org/2000/svg" xmlns:xlink="http://www.w3.org/1999/xlink" version="1.1" id="Layer_1" x="0px" y="0px" width="100px" height="100px" viewBox="0 0 100 100" enable-background="new 0 0 100 100" xml:space="preserve">
<g>
	<path fill="#000000" d="M84,57.003H68c-1.682,0-3.185,1.052-3.759,2.633L61.198,68H38.802l-3.043-8.364   c-0.574-1.581-2.077-2.633-3.759-2.633H16c-2.209,0-4,1.791-4,4V86c0,2.209,1.791,4,4,4h68c2.209,0,4-1.791,4-4V61.003   C88,58.794,86.209,57.003,84,57.003z M80,82H20V65.003h9.198l3.043,8.364C32.815,74.948,34.318,76,36,76h28   c1.682,0,3.185-1.052,3.759-2.633l3.043-8.364H80V82z"/>
	<path fill="#000000" d="M40.828,36.792l5.133-5.132V55c0,2.209,1.791,4,4,4s4-1.791,4-4V31.657l5.135,5.134   c0.781,0.781,1.805,1.171,2.828,1.171s2.048-0.391,2.828-1.172c1.562-1.562,1.562-4.095,0-5.657L52.794,19.177   c-0.188-0.189-0.396-0.358-0.62-0.506c-0.066-0.044-0.139-0.073-0.208-0.113c-0.157-0.092-0.313-0.184-0.483-0.254   c-0.086-0.036-0.176-0.053-0.265-0.083c-0.159-0.053-0.315-0.11-0.483-0.143c-0.117-0.023-0.237-0.023-0.356-0.036   C50.239,18.027,50.104,18,49.961,18c-0.156,0-0.303,0.028-0.454,0.046c-0.106,0.012-0.212,0.011-0.316,0.032   c-0.183,0.036-0.354,0.097-0.526,0.156c-0.073,0.025-0.148,0.039-0.221,0.068c-0.192,0.079-0.372,0.181-0.549,0.289   c-0.046,0.028-0.096,0.047-0.142,0.077c-0.229,0.152-0.441,0.326-0.634,0.521L35.172,31.134c-1.562,1.562-1.562,4.095,0,5.657   C36.732,38.354,39.266,38.353,40.828,36.792z"/>
</g>
</svg>