<svg xmlns="http://www.w3.org/2000/svg" xmlns:xlink="http://www.w3.org/1999/xlink" version="1.1" id="Layer_1" x="0px" y="0px" width="100px" height="100px" viewBox="0 0 100 100" enable-background="new 0 0 100 100" xml:space="preserve">
<g id="XMLID_7_">
	<g>
		<path d="M56.53,67.07l3.68-4.771c1.271-1.66,3.65-1.97,5.3-0.689l7.09,5.46l8.07,6.22c1.66,1.28,1.97,3.66,0.69,5.32l-5.49,7.12    c-0.271,0.35-0.88,0.739-1.69,1.119l0.04,0.08c-22.77,11.45-44.11-3.16-55.16-16.01c-1.13-1.31-2.19-2.6-3.19-3.85l-1.73-2.24    C2.71,49.63,1.36,38.58,7.12,25.95c1.1-2.41,2.46-4.88,4.06-7.44c0.5-0.58,0.96-1.02,1.32-1.189l7.87-3.98    c1.83-0.939,4.07-0.21,4.99,1.641l8.47,16.729c0.2,0.41,0.33,0.83,0.38,1.25c0.17,1.5-0.59,3.01-2.02,3.73l-7.87,3.989    c-0.94,0.49-2.77,0.301-5.42-0.239c-0.77,4.05,0.61,8.52,3.79,13.42c1.8,2.75,4.16,5.63,7.04,8.649c1.37,1.44,2.89,3,4.53,4.561    c6.11,5.79,13.81,11.46,21.271,9.81c-2.65-3.7-1.8-6.2-0.82-7.46L56.53,67.07z"/>
	</g>
</g>
<g id="XMLID_10_">
	<g>
		<path d="M63.17,48.35c8.48,2.33,11.53,8.24,11.5,12.11h-4.14l-5.84-4.49c-2.36-1.05-5.311-0.8-6.36,0.57l-3.03,3.92H34.97    c-1.35-1.28-2.61-2.56-3.73-3.75c-2.38-2.49-4.32-4.86-5.8-7.12c0.98-0.49,4.08-0.91,5.33-1.24c7.41-2.04,11.11-2.89,11.93-5.31    h0.4c-0.11-0.09-0.21-0.17-0.31-0.28c-2.61-2.35-4.71-6.54-5.35-10.45c-0.13-0.819-0.2-1.609-0.2-2.38    c0-6.319,5.18-11.439,10.07-11.439s9.8,5.45,9.8,11.779c0,4.471-2.65,9.82-5.94,12.57C51.85,45.42,55.55,46.25,63.17,48.35z"/>
	</g>
</g>
</svg>